,name,id,birth_lat,birth_lon,death_lat,death_lon
0,Daeng Soetigna,14917329,-7.21666667,107.9,-6.95,107.56666666667
1,Muhammad Kholil al-Bangkalani,28355695,-7.025313,112.75193,-7.025313,112.75193
2,Mohammad Natsir,2327343,-1.076,100.772,-6.21462,106.84513
3,Neles Tebay,17410845,-4.00694,136.038,-6.21462,106.84513
4,Hans Sonnenberg,31108131,-5.15,119.45,51.9225,4.47917
5,Abdurrahman Shihab,55766298,-5.15,119.45,-5.15,119.45
6,Frank Herman Leo Beyaert,63003132,-5.15,119.45,52.09083,5.12222
7,Hans Gugelot,75989,-5.15,119.45,48.39841,9.99155
8,Toon de Ruiter,2273759,-8.8333333333333,121.65,51.96555556,6.28888889
9,Tjeng Sit Oey,52157340,-7.42555556,109.24222222,52.383333333333,4.9
10,Nini Theilade,3341990,-7.42555556,109.24222222,55.1756,10.7458
11,Iqbal Assegaf,12486744,-0.6167,127.5,-6.21462,106.84513
12,Charles Christiaan Pouwels,2301344,-0.45,100.41667,51.60946,16.85852
13,Laila Sari,12493503,-0.45,100.41667,-6.21462,106.84513
14,Rivai Apin,17410386,-0.45,100.41667,-6.21462,106.84513
15,Mohamad Mochtar,15621661,-6.81806,107.12861,-6.21462,106.84513
16,Johannes Latuharhary,16184899,,,-6.21462,106.84513
17,Kwee Kiat Sek,16570324,-6.21462,106.84513,-6.21462,106.84513
18,Dicky Zulkarnaen,4272691,-6.21462,106.84513,-6.21462,106.84513
19,Thio Him Tjiang,12521355,-6.21462,106.84513,-6.21462,106.84513
20,Rachmat Kartolo,12507598,-6.21462,106.84513,-6.21462,106.84513
21,Jefri Al Buchori,11979222,-6.21462,106.84513,-6.21462,106.84513
22,Dodo Zakaria,11202820,-6.21462,106.84513,-6.21462,106.84513
23,Alexander Cornelis van der Leeden,82573144,-6.21462,106.84513,-6.21462,106.84513
24,Hans Haasmann,59784727,-6.21462,106.84513,-25.285277777778,152.87277777778
25,Pak Tile,17411579,-6.21462,106.84513,-6.21462,106.84513
26,Ricky Dayandani,12508601,-6.21462,106.84513,-6.21462,106.84513
27,Frans Louis Wiemans,3082995,-6.21462,106.84513,-6.95,107.56666666667
28,Ali Alatas,957483,-6.21462,106.84513,1.3,103.8
29,Fred Ockerse,16945416,-6.21462,106.84513,59.329444444444,18.068611111111
30,Anna Dekking-van Haeften,2532721,-6.21462,106.84513,53.21852777777778,6.567
31,Olga Syahputra,606577,-6.21462,106.84513,1.3,103.8
32,William Neale,18421217,-6.21462,106.84513,51.507222222222,-0.1275
33,A. Kohar Ibrahim,12470450,-6.21462,106.84513,50.846666666667,4.3525
34,Ully Artha,12523159,-6.21462,106.84513,-6.21462,106.84513
35,Ricky Jo,7992749,-6.21462,106.84513,-6.21462,106.84513
36,Adjie Massaid,4683174,-6.21462,106.84513,-6.21462,106.84513
37,Ratna Mohini,3892810,-6.21462,106.84513,48.856944444444,2.3513888888889
38,Kho Sin-Kie,3196192,-6.21462,106.84513,51.507222222222,-0.1275
39,Pierre Tendean,2603600,-6.21462,106.84513,-6.21462,106.84513
40,Chrisye,732135,-6.21462,106.84513,-6.21462,106.84513
41,Indonesian nurse,566307,-6.21462,106.84513,37.7775,-122.41638888888889
42,Zainuddin MZ,7476059,-6.21462,106.84513,-6.21462,106.84513
43,Gustaaf van Hulstijn,5620955,-6.21462,106.84513,52.20167,6.20139
44,Xing-Hu Kuo,2598274,-6.21462,106.84513,52.516666666667,13.383333333333
45,Ferry Sonneville,1408151,-6.21462,106.84513,-6.21462,106.84513
46,M. Balfas,1179734,-6.21462,106.84513,-6.21462,106.84513
47,Huibert Boumeester,2328613,-6.21462,106.84513,52.088888888889,5.1155555555556
48,Hella Haasse,232400,-6.21462,106.84513,52.383333333333,4.9
49,Arthur van Schendel,202355,-6.21462,106.84513,52.383333333333,4.9
50,Julia Perez,3347367,-6.21462,106.84513,-6.21462,106.84513
51,Endang Rahayu Sedyaningsih,469616,-6.21462,106.84513,-6.21462,106.84513
52,,48150180,-6.21462,106.84513,-6.21462,106.84513
53,Abubakar bin Ali Shahab,14917282,-6.21462,106.84513,-6.21462,106.84513
54,Ria Irawan,12508562,-6.21462,106.84513,-6.21462,106.84513
55,Toeti Adhitama,19369187,-6.21462,106.84513,-6.21462,106.84513
56,Thee Kian Wie,12521337,-6.21462,106.84513,-6.21462,106.84513
57,Adnan Buyung Nasution,12470758,-6.21462,106.84513,-6.21462,106.84513
58,Peter van der Bilt,55677006,-6.21462,106.84513,52.383333333333,4.9
59,Wilhelm BÃ¼sing,2572217,-6.21462,106.84513,51.333333333333,12.383333333333
60,Nicolaas Jouwe,2257907,-6.21462,106.84513,-6.21462,106.84513
61,Mike Mohede,2106917,-6.21462,106.84513,-6.21462,106.84513
62,Odji Lirungan,21129552,-6.21462,106.84513,-6.21462,106.84513
63,Yoga Dirga Cahya,19369188,-6.21462,106.84513,-6.21462,106.84513
64,Zainal Abidin,12525385,-6.21462,106.84513,-6.21462,106.84513
65,Detty Kurnia,11856039,-6.21462,106.84513,-6.95,107.56666666667
66,Sjumandjaja,4199003,-6.21462,106.84513,-6.21462,106.84513
67,Mpok Nori,17410761,-6.21462,106.84513,-6.21462,106.84513
68,Antemas,15712882,-2.4175,115.24916666667,-6.21462,106.84513
69,Ton Bijkerk,46709001,-6.95,107.56666666667,53.21852777777778,6.567
70,G.H. Mantik,12483157,-6.95,107.56666666667,-6.21462,106.84513
71,Anton Moeliono,12472266,-6.95,107.56666666667,-6.21462,106.84513
72,Dick Schoemaker,59623435,-6.95,107.56666666667,51.05,-114.06666666667
73,Jan Ruff O'Herne,11310259,-6.95,107.56666666667,-34.933333333333,138.58333333333
74,Sofia W.D.,7553681,-6.95,107.56666666667,-6.21462,106.84513
75,Sandra Reemer,291116,-6.95,107.56666666667,52.383333333333,4.9
76,Rainer Zepperitz,85197,-6.95,107.56666666667,52.516666666667,13.383333333333
77,Mus Mualim,12499620,-6.95,107.56666666667,-6.21462,106.84513
78,Muhammad Fachroni,12499352,-6.95,107.56666666667,-6.95,107.56666666667
79,Soetjipto Soentoro,7553548,-6.95,107.56666666667,-6.21462,106.84513
80,January Christy,5926143,-6.95,107.56666666667,-6.95,107.56666666667
81,Fred Klein,532902,-6.95,107.56666666667,48.856944444444,2.3513888888889
82,Ben Bouman,45320421,-6.95,107.56666666667,52.09,5.23333
83,Irena Justine,12486760,-6.95,107.56666666667,-6.21462,106.84513
84,Farida Arriany,12482792,-6.95,107.56666666667,-6.21462,106.84513
85,Roekiah,6116223,-6.95,107.56666666667,-6.21462,106.84513
86,Nike Ardilla,5262520,-6.95,107.56666666667,-6.95,107.56666666667
87,Jacques Paul Delprat,2327301,-6.95,107.56666666667,52.088888888889,5.1155555555556
88,Henk Badings,712489,-6.95,107.56666666667,51.3108,5.6133
89,Saphira Indah,12512127,-6.95,107.56666666667,-6.21462,106.84513
90,Sijfert Hendrik Koorders,4232763,-6.95,107.56666666667,-6.21462,106.84513
91,Lolo Soetoro,4115068,-6.95,107.56666666667,-6.21462,106.84513
92,Raden Adipati Aria Muharam Wiranatakusumah,3569429,-6.95,107.56666666667,-6.21462,106.84513
93,Muhammad Toha,2438221,-6.95,107.56666666667,-6.95,107.56666666667
94,Gerrit Bijlsma,2422048,-6.95,107.56666666667,52.380277777778,4.6405555555556
95,,70103737,-6.95,107.56666666667,52.383333333333,4.9
96,Jan BartholomeÃ¼s Thomas,63003926,-6.95,107.56666666667,52.09083,5.12222
97,Cornelis Christiaan Berg,1133511,-6.95,107.56666666667,51.9225,4.47917
98,Rudi Cormane,56036404,-6.95,107.56666666667,52.383333333333,4.9
99,Helbert DamstÃ©,63003281,-6.95,107.56666666667,52.09,5.23333
100,Freddy Sofian,54978752,-6.95,107.56666666667,-6.95,107.56666666667
101,Harry Roesli,5672018,-6.95,107.56666666667,-6.21462,106.84513
102,Asep Sunandar Sunarya,4804179,-6.95,107.56666666667,-6.95,107.56666666667
103,Djoehana Wiradikarta,3033048,-6.95,107.56666666667,-6.95,107.56666666667
104,Eppo Doeve,2667761,-6.95,107.56666666667,52.383333333333,4.9
105,Loek Huisman,47494629,-6.95,107.56666666667,48.20833,16.373064
