,name,id,birth_lat,birth_lon,death_lat,death_lon
0,Japanese photographer,76970262,33.83916,132.76574,33.83916,132.76574
1,Japanese military personnel (1839-1897),11651923,34.233333333333,135.16666666667,34.233333333333,135.16666666667
2,Kinga Baitei,11538390,35.6894,139.692,35.6894,139.692
3,Kazuhiro Yamauchi,487416,35.30388888888889,136.80305555555555,35.689722222222,139.69222222222
4,Kunio Motoe,11520487,33.83916,132.76574,35.689722222222,139.69222222222
5,Tadayoshi Sakurai,4405557,33.83916,132.76574,33.83916,132.76574
6,Masaoka Shiki,315152,33.83916,132.76574,35.689722222222,139.69222222222
7,Toshiaki Kuwahara,23993140,33.83916,132.76574,36.033333333333,140.06666666667
8,Akiyama Yoshifuru,419492,33.83916,132.76574,33.83916,132.76574
9,Japanese politician,11428708,33.83916,132.76574,35.689722222222,139.69222222222
10,Kawabata Ryushi,2113300,34.233333333333,135.16666666667,35.689722222222,139.69222222222
11,Aliya,11459799,34.233333333333,135.16666666667,34.233333333333,135.16666666667
12,Tadasu Iizawa,11666421,34.233333333333,135.16666666667,35.689722222222,139.69222222222
13,Kaichi Watanabe,10863038,35.6894,139.692,35.689722222222,139.69222222222
14,TÅyama Unjo,6563460,35.6894,139.692,35.011141,135.76693
15,Ii Naosuke,716940,35.6894,139.692,35.6894,139.692
16,Shimazu Nariakira,1143856,35.6894,139.692,31.58003,130.52806
17,Yanagi Narayoshi,11534346,35.6894,139.692,35.689722222222,139.69222222222
18,Okita SÅji,267549,35.6894,139.692,35.6894,139.692
19,Matsudaira Tadaatsu,11069807,35.6894,139.692,39.73915,-104.9847
20,ÅŒhashi Totsuan,6561583,35.6894,139.692,35.6894,139.692
21,Ebara Soroku,3387854,35.6894,139.692,35.689722222222,139.69222222222
22,Arai Ikunosuke,2813872,35.6894,139.692,35.689722222222,139.69222222222
23,Haruki Nanka,11513735,35.6894,139.692,35.6894,139.692
24,Tokugawa Akitake,3530485,35.6894,139.692,35.689722222222,139.69222222222
25,Hayashi Tadataka,2412891,35.6894,139.692,35.689722222222,139.69222222222
26,Itakura Katsukiyo,3155837,35.6894,139.692,35.689722222222,139.69222222222
27,Hayashi Akira,3128810,35.6894,139.692,35.6894,139.692
28,Hideyuki Ashihara,919033,34.385277777778,132.45527777778,33.83916,132.76574
29,Kihara ShÅroku,21655655,34.385277777778,132.45527777778,34.385277777778,132.45527777778
30,Yasuyuki Kuwahara,2360077,34.385277777778,132.45527777778,34.385277777778,132.45527777778
31,YÅ«zan Fujita,982634,34.385277777778,132.45527777778,34.385277777778,132.45527777778
32,Reiji Okazaki,1599768,34.385277777778,132.45527777778,34.385277777778,132.45527777778
33,Ayao Yamana,11467590,34.385277777778,132.45527777778,35.689722222222,139.69222222222
34,Hitoshi Okino,11553043,34.385277777778,132.45527777778,35.689722222222,139.69222222222
35,Aimitsu,4058606,34.385277777778,132.45527777778,31.166666666667,121.46666666667
36,Jujiro Matsuda,3274710,34.385277777778,132.45527777778,34.385277777778,132.45527777778
37,Miekichi Suzuki,328931,34.385277777778,132.45527777778,34.385277777778,132.45527777778
38,Sadako Sasaki,231997,34.385277777778,132.45527777778,34.385277777778,132.45527777778
39,Mitoyo Kawate,779372,34.385277777778,132.45527777778,34.385277777778,132.45527777778
40,Toraichi Kono,11673148,34.385277777778,132.45527777778,34.385277777778,132.45527777778
41,Masaichi Niimi,705363,34.385277777778,132.45527777778,34.385277777778,132.45527777778
42,Akiko Futaba,4207363,34.385277777778,132.45527777778,34.385277777778,132.45527777778
43,Debuko ÅŒyama,11434574,34.683333333333,135.78333333333,33.83916,132.76574
44,Hidemaro Watanabe,982149,34.385277777778,132.45527777778,34.385277777778,132.45527777778
45,IkkÅ Tanaka,325697,34.683333333333,135.78333333333,35.689722222222,139.69222222222
46,Jinzaburo Takagi,908258,36.383333333333,139.06666666667,35.689722222222,139.69222222222
47,Toshio SatÅ,11383661,36.383333333333,139.06666666667,35.689722222222,139.69222222222
48,Takeshi Yokozawa,11543307,36.383333333333,139.06666666667,35.689722222222,139.69222222222
49,Hiroaki Hidaka,1199851,31.916666666667,131.41666666667,34.385277777778,132.45527777778
50,Yoshimi Inoue,10394675,35.501111111111,134.235,35.501111111111,134.235
51,Makoto Tanabe,11577432,36.383333333333,139.06666666667,36.383333333333,139.06666666667
52,Masao Sugiuchi,3078750,31.916666666667,131.41666666667,35.689722222222,139.69222222222
53,Toshiyuki Hosokawa,841410,33.883333333333,130.88333333333,35.689722222222,139.69222222222
54,RyÅ«ichirÅ Hosokawa,11606015,33.883333333333,130.88333333333,35.689722222222,139.69222222222
55,Hiroji Yamamoto,11469045,34.981884,136.580197,35.689722222222,139.69222222222
56,Shunkai Mizuho,11573944,36.648611111111,138.19277777778,36.648611111111,138.19277777778
57,Ikuko Yoda,11385547,36.648611111111,138.19277777778,35.689722222222,139.69222222222
58,Yoshio Maruta,11368401,36.648611111111,138.19277777778,36.648611111111,138.19277777778
59,Takumi Ashibe,3514390,36.648611111111,138.19277777778,48.856944444444,2.3513888888889
60,ZentarÅ Kosaka,5463671,36.648611111111,138.19277777778,35.689722222222,139.69222222222
61,Nakamaru SeijÅ«rÅ,11362845,35.666666666667,138.56666666667,35.666666666667,138.56666666667
62,Ume KenjirÅ,3022470,35.468055555556,133.04861111111,,
63,,21698397,35.468055555556,133.04861111111,35.468055555556,133.04861111111
64,Shunji Sonoyama,11422791,35.468055555556,133.04861111111,35.689722222222,139.69222222222
65,E. Herbert Norman,1297318,36.648611111111,138.19277777778,30.056111111111,31.239444444444
66,Kusakabe Kimbei,1794526,35.666666666667,138.56666666667,34.6913,135.183
67,Yutaka Yoneda,11604350,35.468055555556,133.04861111111,35.689722222222,139.69222222222
68,Fukuda Riken,6538457,,,,
69,Maeda Toshisada,6729115,35.689722222222,139.69222222222,35.689722222222,139.69222222222
70,Hisayuki Sasaki,5772497,35.689722222222,139.69222222222,13.75,100.51666666667
71,Hiroshi KatÅ,11399199,35.689722222222,139.69222222222,35.689722222222,139.69222222222
72,Katsumi ItÅ,11379883,35.689722222222,139.69222222222,35.689722222222,139.69222222222
73,Sadanari Hisamatsu,11369432,35.689722222222,139.69222222222,33.83916,132.76574
74,Toshio Nakanishi,7827776,35.689722222222,139.69222222222,35.689722222222,139.69222222222
75,Tadashi Mori,7674367,35.689722222222,139.69222222222,35.689722222222,139.69222222222
76,Chieko Honda,1189677,35.689722222222,139.69222222222,36.648611111111,138.19277777778
77,Masayuki Takayanagi,504996,35.689722222222,139.69222222222,35.689722222222,139.69222222222
78,Sori Yanagi,181996,35.689722222222,139.69222222222,35.689722222222,139.69222222222
79,Yoshinori Hashimoto,18817962,35.689722222222,139.69222222222,35.689722222222,139.69222222222
80,Hideo Takahashi,11671595,35.689722222222,139.69222222222,35.689722222222,139.69222222222
81,Hiromasa Suzuki,11648740,35.689722222222,139.69222222222,35.689722222222,139.69222222222
82,Noriyuki Watanabe,11562477,35.689722222222,139.69222222222,35.689722222222,139.69222222222
83,Seiichiro Ujiie,11547811,35.689722222222,139.69222222222,35.689722222222,139.69222222222
84,JirÅ Yanase,11538350,35.689722222222,139.69222222222,35.689722222222,139.69222222222
85,Mamoru Koeda,11461970,35.689722222222,139.69222222222,35.689722222222,139.69222222222
86,Mitsuo Katsui,11400132,35.689722222222,139.69222222222,35.689722222222,139.69222222222
87,Akio Ueda,11359827,35.689722222222,139.69222222222,35.689722222222,139.69222222222
88,JunzÅ Yoshimura,3297694,35.689722222222,139.69222222222,35.689722222222,139.69222222222
89,Shunsuke Matsumoto,2811944,35.689722222222,139.69222222222,35.689722222222,139.69222222222
90,Fukuda Tokuyasu,911753,35.689722222222,139.69222222222,35.689722222222,139.69222222222
91,Kunihiko Kodaira,333918,35.689722222222,139.69222222222,35.666666666667,138.56666666667
92,Arimasa Mori,161876,35.689722222222,139.69222222222,48.856944444444,2.3513888888889
93,Hisashi Kuno,18285173,35.689722222222,139.69222222222,35.689722222222,139.69222222222
94,Isao Karube,11637609,35.689722222222,139.69222222222,35.689722222222,139.69222222222
95,Nobu KÅda,11484020,35.689722222222,139.69222222222,35.689722222222,139.69222222222
96,Hideji Kosaka,11459442,35.689722222222,139.69222222222,35.689722222222,139.69222222222
97,Bunjaku Yoshida,11413851,35.689722222222,139.69222222222,34.733333333333,135.33333333333
98,"NaitÅ, Chin",11394567,35.689722222222,139.69222222222,35.689722222222,139.69222222222
99,Lilian May Miller,6547702,35.689722222222,139.69222222222,37.7775,-122.41638888888889
100,Hiroshi Kamayatsu,5770882,35.689722222222,139.69222222222,35.689722222222,139.69222222222
101,Hiroaki Aoki,5770004,35.689722222222,139.69222222222,40.67,-73.94
102,Hisayuki Machii,4360796,35.689722222222,139.69222222222,35.689722222222,139.69222222222
103,IkkÅ Shimizu,11560772,35.689722222222,139.69222222222,35.689722222222,139.69222222222
104,Ikkaku Matsuzawa,11531714,35.689722222222,139.69222222222,35.689722222222,139.69222222222
105,Sone TatsuzÅ,11515378,35.689722222222,139.69222222222,35.689722222222,139.69222222222
106,Michiko ÅŒtsuka,11434106,35.689722222222,139.69222222222,35.689722222222,139.69222222222
107,Tatsuo Tomobe,11410394,35.689722222222,139.69222222222,35.689722222222,139.69222222222
108,Kiharu Nakamura,9292866,35.689722222222,139.69222222222,40.67,-73.94
109,SÅju Nosaka II,6383692,35.689722222222,139.69222222222,35.689722222222,139.69222222222
110,Akiko Seki,3652659,35.689722222222,139.69222222222,35.689722222222,139.69222222222
111,Senge Motomaro,3325265,35.689722222222,139.69222222222,35.689722222222,139.69222222222
112,Hiroko Matsumoto,533810,35.689722222222,139.69222222222,48.856944444444,2.3513888888889
113,Nejiko Suwa,383439,35.689722222222,139.69222222222,35.689722222222,139.69222222222
114,Toshiko Ueda,534490,35.689722222222,139.69222222222,35.689722222222,139.69222222222
115,Kazue Kobata,11518387,35.689722222222,139.69222222222,35.689722222222,139.69222222222
116,Naohiko ÅŒkubo,11432049,35.689722222222,139.69222222222,35.689722222222,139.69222222222
117,Reika Kikkawa,11413112,35.689722222222,139.69222222222,35.689722222222,139.69222222222
118,Kikuko Inoue,11372917,35.689722222222,139.69222222222,35.689722222222,139.69222222222
119,LudmiÅ‚a Jakubczak,8861892,35.689722222222,139.69222222222,52.19849,20.61709
120,Taijun Takeda,7676010,35.689722222222,139.69222222222,35.689722222222,139.69222222222
121,Hiroko Nakamura,5770402,35.689722222222,139.69222222222,35.689722222222,139.69222222222
122,Eiji Kanie,5349213,35.689722222222,139.69222222222,35.689722222222,139.69222222222
123,KeijirÅ AsÅ,3194690,35.689722222222,139.69222222222,35.689722222222,139.69222222222
124,KanÅ Minoru,3192783,35.689722222222,139.69222222222,48.856944444444,2.3513888888889
125,Yukio Aoshima,3119116,35.689722222222,139.69222222222,35.689722222222,139.69222222222
126,Ihei Kimura,3106591,35.689722222222,139.69222222222,35.689722222222,139.69222222222
127,Shunichiro Okano,2360093,35.689722222222,139.69222222222,35.689722222222,139.69222222222
128,Isao Hosoe,1673712,35.689722222222,139.69222222222,45.466944444444,9.19
129,Tatsuo Hori,961645,35.689722222222,139.69222222222,35.689722222222,139.69222222222
130,Morikazu Toda,467309,35.689722222222,139.69222222222,35.689722222222,139.69222222222
131,Keiko Fukuda,460890,35.689722222222,139.69222222222,37.7775,-122.41638888888889
132,Masabumi Kikuchi,357364,35.689722222222,139.69222222222,40.67,-73.94
133,Masakazu Uzawa,47470344,35.689722222222,139.69222222222,35.689722222222,139.69222222222
134,Yasuhiko Torii,11674924,35.689722222222,139.69222222222,35.689722222222,139.69222222222
135,YÅko Sugi,11522340,35.689722222222,139.69222222222,35.689722222222,139.69222222222
136,Hisako Yoshizawa,11413424,35.689722222222,139.69222222222,35.689722222222,139.69222222222
137,Yayoi KanÅ,11398766,35.689722222222,139.69222222222,35.689722222222,139.69222222222
138,Masako Nakata,11366718,35.689722222222,139.69222222222,35.501111111111,134.235
139,Ke Quin-ming,9295624,35.689722222222,139.69222222222,25.047777777778,121.53194444444
140,Iwamoto Mari,6100506,35.689722222222,139.69222222222,35.689722222222,139.69222222222
141,Tamaki Uemura,3930948,35.689722222222,139.69222222222,35.689722222222,139.69222222222
142,Akatsuka Jitoku,4700364,35.689722222222,139.69222222222,35.689722222222,139.69222222222
143,Kanako Fukaura,3545502,35.689722222222,139.69222222222,35.689722222222,139.69222222222
144,Masaharu Segawa,3297107,35.689722222222,139.69222222222,35.689722222222,139.69222222222
145,Jun Tsuji,3189987,35.689722222222,139.69222222222,35.689722222222,139.69222222222
146,Tosaka Jun,2445240,35.689722222222,139.69222222222,36.648611111111,138.19277777778
147,Sachiko Murase,2081217,35.689722222222,139.69222222222,36.383333333333,139.06666666667
148,Masayuki Fujio,1473237,35.689722222222,139.69222222222,35.689722222222,139.69222222222
149,IichirÅ Hatoyama,1155062,35.689722222222,139.69222222222,35.689722222222,139.69222222222
150,Prince Kitashirakawa Naruhisa,1057871,35.689722222222,139.69222222222,48.856944444444,2.3513888888889
151,Grace James,5591226,35.689722222222,139.69222222222,41.893055555556,12.482777777778
152,Yasunori Watanabe,3571993,35.689722222222,139.69222222222,35.689722222222,139.69222222222
153,Hiro Takahashi,3273168,35.689722222222,139.69222222222,35.689722222222,139.69222222222
154,KÅshirÅ Onchi,2038322,35.689722222222,139.69222222222,35.689722222222,139.69222222222
155,Shigeo Fukuda,981942,35.689722222222,139.69222222222,35.689722222222,139.69222222222
156,Osamu Takizawa,464049,35.689722222222,139.69222222222,35.683333333333,139.55944444444
157,Liang Sicheng,71874,35.689722222222,139.69222222222,39.905,116.39138888889
158,Makoto Tsumori,60197359,35.689722222222,139.69222222222,35.689722222222,139.69222222222
159,Shinichi Nishimiya,2198687,35.689722222222,139.69222222222,35.689722222222,139.69222222222
160,Kazuo Kashio,1737565,35.689722222222,139.69222222222,35.689722222222,139.69222222222
161,Inoue YÅ«ichi,1567766,35.689722222222,139.69222222222,35.689722222222,139.69222222222
162,Kimishige Ishizaka,544711,35.689722222222,139.69222222222,38.25,140.33333333333
163,Ryuichi Suzuki,47452639,35.689722222222,139.69222222222,48.856944444444,2.3513888888889
164,Chieko KotÅda,23947305,35.689722222222,139.69222222222,35.689722222222,139.69222222222
165,Ryoichi Nakagawa,14076501,35.689722222222,139.69222222222,35.689722222222,139.69222222222
166,Hisao Kanamori,11647254,35.689722222222,139.69222222222,35.689722222222,139.69222222222
167,Sawako Noma,11646175,35.689722222222,139.69222222222,35.689722222222,139.69222222222
168,Kiyoshi Wakabayashi,11616526,35.689722222222,139.69222222222,35.689722222222,139.69222222222
169,Yoshibumi Wakamiya,11616265,35.689722222222,139.69222222222,39.905,116.39138888889
170,Hiroshi Matsuki,11530756,35.689722222222,139.69222222222,35.689722222222,139.69222222222
171,Kiyoko Koizumi,11462544,35.689722222222,139.69222222222,35.689722222222,139.69222222222
172,Hideharu AndÅ,11451399,35.689722222222,139.69222222222,35.689722222222,139.69222222222
173,Kiku Amino,6406386,35.689722222222,139.69222222222,35.672,139.723
174,Yukinori Miyabe,3269109,35.689722222222,139.69222222222,35.689722222222,139.69222222222
175,Fumiko Shiraga,3090841,35.689722222222,139.69222222222,52.374444444444,9.7386111111111
176,Michiko Hirayama,17229979,35.689722222222,139.69222222222,41.893055555556,12.482777777778
177,Masahiko Inadomi,11988597,35.689722222222,139.69222222222,59.911111111111,10.752777777778
178,Keiko Amenomiya,11659698,35.689722222222,139.69222222222,35.689722222222,139.69222222222
179,ShirÅ DÅya,11650193,35.689722222222,139.69222222222,35.689722222222,139.69222222222
180,Sukeyasu Shiba,11614712,35.689722222222,139.69222222222,35.689722222222,139.69222222222
181,Rokuro Ishikawa,11585705,35.689722222222,139.69222222222,35.689722222222,139.69222222222
182,Izumi Tanaka,11575402,35.689722222222,139.69222222222,35.689722222222,139.69222222222
183,YÅ Matsuzaki,11530235,35.689722222222,139.69222222222,35.689722222222,139.69222222222
184,RokurÅ Naya,2723211,35.689722222222,139.69222222222,35.689722222222,139.69222222222
185,Toyo Tanaka,2447019,35.689722222222,139.69222222222,48.137194444444,11.5755
186,Yoshimaro Yamashina,1849432,35.689722222222,139.69222222222,35.689722222222,139.69222222222
187,Iemasa Kayumi,1114341,35.689722222222,139.69222222222,35.689722222222,139.69222222222
188,Shu Uemura,1001899,35.689722222222,139.69222222222,35.689722222222,139.69222222222
189,Chiang Wei-kuo,701020,35.689722222222,139.69222222222,25.047777777778,121.53194444444
190,Helen Waddell,540168,35.689722222222,139.69222222222,51.507222222222,-0.1275
191,Nakamura KanzaburÅ XVIII,498314,35.689722222222,139.69222222222,35.689722222222,139.69222222222
192,Nobuhiro ÅŒkÅchi,23453198,35.689722222222,139.69222222222,35.689722222222,139.69222222222
193,Hiratsuka Masunori,15075170,35.689722222222,139.69222222222,35.689722222222,139.69222222222
194,Dhiren Bhagat,13522451,35.689722222222,139.69222222222,28.666666666667,77.216666666667
195,Yasuhiko Inukai,11571290,35.689722222222,139.69222222222,35.689722222222,139.69222222222
196,Marian Irwin Osterhout,58323444,35.689722222222,139.69222222222,40.67,-73.94
197,KyÅko Aoyama,11661206,35.689722222222,139.69222222222,35.689722222222,139.69222222222
198,Minoru Nagaoka,11652035,35.689722222222,139.69222222222,35.689722222222,139.69222222222
199,KyÅko Tsuda,11556248,35.689722222222,139.69222222222,35.689722222222,139.69222222222
200,Mitsuhiro Matsuda,11532002,35.689722222222,139.69222222222,35.689722222222,139.69222222222
201,Norihiko Sugi,11522332,35.689722222222,139.69222222222,35.689722222222,139.69222222222
202,ShÅtarÅ Moriyasu,11450000,35.689722222222,139.69222222222,35.689722222222,139.69222222222
203,Makoto Masuzawa,11429259,35.689722222222,139.69222222222,35.689722222222,139.69222222222
204,Shozo Uchii,11393855,35.689722222222,139.69222222222,35.689722222222,139.69222222222
205,Yoshikazu Uchida,8056122,35.689722222222,139.69222222222,35.689722222222,139.69222222222
206,Yoshihiko Funazaki,8056037,35.689722222222,139.69222222222,35.683333333333,139.55944444444
207,Tenkoko Sonoda,7699921,35.689722222222,139.69222222222,35.689722222222,139.69222222222
208,Kazuo Yamada,6381680,35.689722222222,139.69222222222,35.689722222222,139.69222222222
209,Kazuki Watanabe,6381519,35.689722222222,139.69222222222,35.646643,139.710045
210,Mutsuo Terao,24870115,35.689722222222,139.69222222222,35.689722222222,139.69222222222
211,Utako Okamoto,24294379,35.689722222222,139.69222222222,34.6913,135.183
212,Yukari Hozumi,11597080,35.689722222222,139.69222222222,35.689722222222,139.69222222222
213,Kazuo Kumakura,11567828,35.689722222222,139.69222222222,35.689722222222,139.69222222222
214,Toshio Kawatake,11554075,35.689722222222,139.69222222222,35.689722222222,139.69222222222
215,,11465261,35.689722222222,139.69222222222,35.689722222222,139.69222222222
216,Yukichi Amano,8060683,35.689722222222,139.69222222222,35.689722222222,139.69222222222
217,Mamoru Matsunaga,62036513,31.58003,130.52806,18.476388888889,-69.893333333333
218,Machida Hisanari,11246805,31.58003,130.52806,35.689722222222,139.69222222222
219,IjÅ«in Hikokichi,5367706,31.58003,130.52806,35.689722222222,139.69222222222
220,SaigÅ Kichibei,11629654,31.58003,130.52806,31.58003,130.52806
221,Makino Nobuaki,920993,31.58003,130.52806,,
222,RosÅ Fukuhara,7370188,35.689722222222,139.69222222222,36.648611111111,138.19277777778
223,Okiharu Yasuoka,786752,31.58003,130.52806,35.689722222222,139.69222222222
224,Ichiro Hasegawa,16564597,34.733333333333,135.33333333333,34.6913,135.183
225,Zenmei Hasuda,11621714,32.9,130.683,1.4555555555556,103.76111111111
226,Keiichiro Takahara,19519403,34.001602777778,133.57809722222,35.689722222222,139.69222222222
227,ShÅzÅ Doi,10927602,34.6913,135.183,35.689722222222,139.69222222222
228,Masaru Takumi,6782661,34.6913,135.183,34.6913,135.183
229,Zenzo Matsuyama,11529785,34.6913,135.183,35.689722222222,139.69222222222
230,KÅjirÅ Naoki,11581787,34.6913,135.183,34.683333333333,135.78333333333
231,KyÅji Oguni,11459379,34.6913,135.183,35.689722222222,139.69222222222
232,Konni Zilliacus,4412304,34.6913,135.183,51.515833333333,-0.092222222222222
233,Chang SellÃ©s,2877504,34.6913,135.183,39.466666666667,-0.375
234,Gina Fratini,5562861,34.6913,135.183,51.507222222222,-0.1275
235,Chin Shunshin,697008,34.6913,135.183,34.6913,135.183
236,Kumi Sugai,321715,34.6913,135.183,34.6913,135.183
237,Shungo Sekiguchi,79132713,34.6913,135.183,48.856944444444,2.3513888888889
238,Sadaharu Horio,43131657,34.6913,135.183,34.6913,135.183
239,Hisato Ohzawa,5772450,34.6913,135.183,35.689722222222,139.69222222222
240,Humayun Abdulali,3143159,34.6913,135.183,18.966666666667,72.833333333333
241,Masaru Hayami,1047651,34.6913,135.183,35.683333333333,139.55944444444
242,Nobuhiko Ushiba,6144710,34.6913,135.183,35.689722222222,139.69222222222
243,Rosemarie Albrecht,2166860,34.6913,135.183,50.927222222222,11.586388888889
244,Matsunosuke ShÅfukutei,11599649,34.6913,135.183,34.733333333333,135.33333333333
245,Knock Yokoyama,11542484,34.6913,135.183,34.733333333333,135.33333333333
246,HÅzan Yamamoto,346346,35.016666666667,135.85,35.689722222222,139.69222222222
247,Kazato Date,11380879,38.25,140.33333333333,35.689722222222,139.69222222222
248,Shinshichi Miura,11356449,38.25,140.33333333333,35.689722222222,139.69222222222
249,KenjirÅ Azuma,139095,38.25,140.33333333333,45.466944444444,9.19
250,Norihiro KatÅ,11399036,38.25,140.33333333333,35.689722222222,139.69222222222
251,Tsuguo Hongo,4499742,35.016666666667,135.85,35.016666666667,135.85
252,Ishizaka Teruko,1673899,38.25,140.33333333333,38.25,140.33333333333
253,Yamamoto  YÅshitsu,23946260,35.011141,135.76693,35.011141,135.76693
254,Hajimu Irisawa,11388987,36.49995278,138.91908333,35.689722222222,139.69222222222
255,Fukuoka Takachika,3090706,33.566666666667,133.53333333333,35.689722222222,139.69222222222
256,Takashi Ishimoto,445207,33.566666666667,133.53333333333,33.566666666667,133.53333333333
257,Izumi Imai,11376647,33.566666666667,133.53333333333,34.26852,134.0545
258,Takashi Yokoyama,2004881,33.566666666667,133.53333333333,33.566666666667,133.53333333333
259,Kei Mitsuuchi,64243575,33.566666666667,133.53333333333,48.856944444444,2.3513888888889
260,Tomomi Narita,11495706,34.26852,134.0545,35.689722222222,139.69222222222
261,Yasuhiro Konishi,4351940,34.26852,134.0545,35.689722222222,139.69222222222
262,TÅru Matsuura,11531821,33.566666666667,133.53333333333,34.385277777778,132.45527777778
263,Chuta Kimura,2967700,34.26852,134.0545,48.856944444444,2.3513888888889
264,Hiroo Wada,11417939,35.933333333333,139.48333333333,35.689722222222,139.69222222222
265,ShunzÅ Miyawaki,11455222,35.933333333333,139.48333333333,35.689722222222,139.69222222222
